{
  "code": 200,
  "message": "OK",
  "data": [
    {
      "id": "015f6fc0-bd68-4895-ba8c-c5046d953fe6",
      "name": "melon",
      "description": "melon",
      "stock": 10,
      "createdAt": "2024-09-11T07:40:11.695063",
      "updatedAt": "2024-09-11T07:40:11.695063",
      "deletedAt": null
    },
    {
      "id": "545910cb-ef5e-4ce7-91d2-5b802825ba85",
      "name": "apel",
      "description": "apel",
      "stock": 10,
      "createdAt": "2024-09-11T07:40:02.769367",
      "updatedAt": "2024-09-11T07:40:02.769367",
      "deletedAt": null
    },
    {
      "id": "c641e63f-fd16-48a2-9db9-7b0699f9cdff",
      "name": "manga",
      "description": "manga",
      "stock": 10,
      "createdAt": "2024-09-11T07:39:56.650093",
      "updatedAt": "2024-09-11T07:39:56.650093",
      "deletedAt": null
    }
  ],
  "currentPage": 3,
  "currentSize": 3,
  "totalPages": 3,
  "totalItems": 13
}